presencebits:[True, False, False]
Input Dimensionality:1
Reservoir Dimensionality:10
Output Dimensionality:1
Input Biased:True
Scaling of input weights:0.1
s:matrix([[ 0.079991,  1.      ]])
Reservoir Weights Matrix Spectral Radius (Alpha):0.9
Reservoir Weights Matrix Sparsity Index:0.5
decayrate:0.1
x:matrix([[-0.00069377,  0.05211481,  0.02606549,  0.06191334, -0.0265687 ,  0.02804639,  0.04115005, -0.00500296,  0.01044686,  0.02353762]])
Output Biased:True
y:matrix([[ 0.09203015]])
Win 
[[-0.025518   0.0095742]
 [-0.060376   0.088547 ]
 [-0.0020625 -0.016451 ]
 [-0.032101   0.09661  ]
 [ 0.090326  -0.039709 ]
 [ 0.084066   0.04022  ]
 [-0.089465   0.033268 ]
 [ 0.047572   0.0078253]
 [-0.046176   0.039621 ]
 [-0.015433   0.033306 ]]
Wcap 
[[-0.45179  0.       0.       0.       0.      -0.61142  0.       0.       0.       0.     ]
 [ 0.      -0.45179  0.       0.       0.       0.       0.       0.       0.      -0.70662]
 [ 0.       0.94805 -0.45179  0.       0.       0.       0.       0.       0.       0.     ]
 [ 0.       0.       0.      -0.45179  0.       0.       0.       0.      -0.62474  0.     ]
 [ 0.       0.       0.       0.      -0.45179  0.       0.      -0.88787  0.       0.     ]
 [ 0.       0.       0.       0.11626  0.      -0.45179  0.       0.       0.       0.     ]
 [ 0.       0.       0.72539  0.       0.       0.      -0.45179  0.       0.       0.     ]
 [ 0.       0.       0.       0.       0.32137  0.       0.      -0.45179  0.       0.     ]
 [ 0.       0.       0.       0.       0.       0.      -0.58805  0.      -0.45179  0.     ]
 [-0.24901  0.       0.       0.       0.       0.       0.       0.       0.      -0.45179]]
Wout 
[[ -57762.82275391   58755.62573242  -76215.42767334     473.2975235     6047.97064972    -774.67071152  -39378.06919861 -144212.09472656  -49340.66567993 -162962.92578125    4287.82018661]]
