#Wout: reservoir to readout  weight matrix
#dimension: 1 (output dimension) x 11 (number of reservoir units and bias input)
Goal:    59.456,        19.512,      1731.9,          -10.679,      -51.22,       -263.79,         47.906,        86.923,      1692.2,         -84.573,      -104.62
RR:      63.25347519    21.35605049  1679.82434082    -8.33367538   -51.75082302  -262.92282391    46.46416664    89.61470985  1641.3303833    -82.27345467  -101.7169342 ]]
PI:      63.27359248    21.36580911  1679.55263718    -8.32136721   -51.75366388  -262.91879933    46.45660556    89.62883049  1641.06492855   -82.26122238  -101.70181951]]
